<svg width="322" height="165" viewBox="0 0 322 165" fill="none" xmlns="http://www.w3.org/2000/svg">
<g clip-path="url(#clip0_18_216)">
<path d="M306 4H16C9.37258 4 4 9.37258 4 16V149C4 155.627 9.37258 161 16 161H306C312.627 161 318 155.627 318 149V16C318 9.37258 312.627 4 306 4Z" fill="url(#paint0_linear_18_216)"/>
<g filter="url(#filter0_d_18_216)">
<path d="M233 38H89C84.5817 38 81 41.5817 81 46V118C81 122.418 84.5817 126 89 126H233C237.418 126 241 122.418 241 118V46C241 41.5817 237.418 38 233 38Z" fill="white"/>
</g>
<path d="M91 67H207M91 77H183" stroke="#D1D5DB" stroke-width="3" stroke-linecap="round" stroke-linejoin="round"/>
<path d="M81 84H241V85H81V84ZM81 105H241V106H81V105Z" fill="#F3F4F6"/>
<path d="M93 95H169M93 116H145" stroke="#4B5563" stroke-width="3" stroke-linecap="round" stroke-linejoin="round"/>
<path d="M84 46C84 43.7909 85.7909 42 88 42H161H234C236.209 42 238 43.7909 238 46V55C238 57.2091 236.209 59 234 59H88C85.7909 59 84 57.2091 84 55V46Z" fill="#DEA6F1" fill-opacity="0.5"/>
<path d="M93 51H153" stroke="#B33CEC" stroke-width="3" stroke-linecap="round" stroke-linejoin="round"/>
<path d="M226 93.5L228 95.5L230 93.5M226 114.5L228 116.5L230 114.5" stroke="#D1D5DB" stroke-width="1.5" stroke-linecap="round" stroke-linejoin="round"/>
<path d="M230 52L228 50L226 52" stroke="#B33CEC" stroke-width="1.5" stroke-linecap="round" stroke-linejoin="round"/>
</g>
<defs>
<filter id="filter0_d_18_216" x="73" y="34" width="176" height="104" filterUnits="userSpaceOnUse" color-interpolation-filters="sRGB">
<feFlood flood-opacity="0" result="BackgroundImageFix"/>
<feColorMatrix in="SourceAlpha" type="matrix" values="0 0 0 0 0 0 0 0 0 0 0 0 0 0 0 0 0 0 127 0" result="hardAlpha"/>
<feOffset dy="4"/>
<feGaussianBlur stdDeviation="4"/>
<feColorMatrix type="matrix" values="0 0 0 0 0 0 0 0 0 0 0 0 0 0 0 0 0 0 0.08 0"/>
<feBlend mode="normal" in2="BackgroundImageFix" result="effect1_dropShadow_18_216"/>
<feBlend mode="normal" in="SourceGraphic" in2="effect1_dropShadow_18_216" result="shape"/>
</filter>
<linearGradient id="paint0_linear_18_216" x1="4" y1="4" x2="318.69" y2="5.396" gradientUnits="userSpaceOnUse">
<stop stop-color="#D946EF"/>
<stop offset="1" stop-color="#9333EA"/>
</linearGradient>
<clipPath id="clip0_18_216">
<rect width="314" height="157" fill="white" transform="translate(4 4)"/>
</clipPath>
</defs>
</svg>
